Pulling Sentinal 2 data
…
# Record end time and compute duration
b <- Sys.time()
processing_time <- difftime(b, a)

# Display the processing time and transformed dataset
processing_time

Time difference of 3.847375 mins

y

# A tibble: 600,000 × 3
   time       wavelength_nm reflectance
   <chr>              <dbl>       <dbl>
 1 2021-05-01           443        1400
 2 2021-05-01           490        1583
 3 2021-05-01           560        2124
 4 2021-05-01           665        2800
 5 2021-05-01           705        3044
 6 2021-05-01           740        3117
 7 2021-05-01           783        3209
 8 2021-05-01           842        3314
 9 2021-05-01           865        3245
10 2021-05-01           940        3631
# ℹ 599,990 more rows
…
